sim/dump.vcd
$date
	Fri Apr 24 13:07:08 2026
$end
$version
	QuestaSim Version 10.2c
$end
$timescale
	1ps
$end

$scope module top $end

$scope module dut0 $end

$scope module risc_v_instance $end
$var wire 1 ! clk $end
$var wire 1 " rst $end
$var wire 1 # pc_reg [31] $end
$var wire 1 $ pc_reg [30] $end
$var wire 1 % pc_reg [29] $end
$var wire 1 & pc_reg [28] $end
$var wire 1 ' pc_reg [27] $end
$var wire 1 ( pc_reg [26] $end
$var wire 1 ) pc_reg [25] $end
$var wire 1 * pc_reg [24] $end
$var wire 1 + pc_reg [23] $end
$var wire 1 , pc_reg [22] $end
$var wire 1 - pc_reg [21] $end
$var wire 1 . pc_reg [20] $end
$var wire 1 / pc_reg [19] $end
$var wire 1 0 pc_reg [18] $end
$var wire 1 1 pc_reg [17] $end
$var wire 1 2 pc_reg [16] $end
$var wire 1 3 pc_reg [15] $end
$var wire 1 4 pc_reg [14] $end
$var wire 1 5 pc_reg [13] $end
$var wire 1 6 pc_reg [12] $end
$var wire 1 7 pc_reg [11] $end
$var wire 1 8 pc_reg [10] $end
$var wire 1 9 pc_reg [9] $end
$var wire 1 : pc_reg [8] $end
$var wire 1 ; pc_reg [7] $end
$var wire 1 < pc_reg [6] $end
$var wire 1 = pc_reg [5] $end
$var wire 1 > pc_reg [4] $end
$var wire 1 ? pc_reg [3] $end
$var wire 1 @ pc_reg [2] $end
$var wire 1 A pc_reg [1] $end
$var wire 1 B pc_reg [0] $end
$var wire 1 C PC_IF_EX [31] $end
$var wire 1 D PC_IF_EX [30] $end
$var wire 1 E PC_IF_EX [29] $end
$var wire 1 F PC_IF_EX [28] $end
$var wire 1 G PC_IF_EX [27] $end
$var wire 1 H PC_IF_EX [26] $end
$var wire 1 I PC_IF_EX [25] $end
$var wire 1 J PC_IF_EX [24] $end
$var wire 1 K PC_IF_EX [23] $end
$var wire 1 L PC_IF_EX [22] $end
$var wire 1 M PC_IF_EX [21] $end
$var wire 1 N PC_IF_EX [20] $end
$var wire 1 O PC_IF_EX [19] $end
$var wire 1 P PC_IF_EX [18] $end
$var wire 1 Q PC_IF_EX [17] $end
$var wire 1 R PC_IF_EX [16] $end
$var wire 1 S PC_IF_EX [15] $end
$var wire 1 T PC_IF_EX [14] $end
$var wire 1 U PC_IF_EX [13] $end
$var wire 1 V PC_IF_EX [12] $end
$var wire 1 W PC_IF_EX [11] $end
$var wire 1 X PC_IF_EX [10] $end
$var wire 1 Y PC_IF_EX [9] $end
$var wire 1 Z PC_IF_EX [8] $end
$var wire 1 [ PC_IF_EX [7] $end
$var wire 1 \ PC_IF_EX [6] $end
$var wire 1 ] PC_IF_EX [5] $end
$var wire 1 ^ PC_IF_EX [4] $end
$var wire 1 _ PC_IF_EX [3] $end
$var wire 1 ` PC_IF_EX [2] $end
$var wire 1 a PC_IF_EX [1] $end
$var wire 1 b PC_IF_EX [0] $end
$var wire 1 c PC_4_IF_EX [31] $end
$var wire 1 d PC_4_IF_EX [30] $end
$var wire 1 e PC_4_IF_EX [29] $end
$var wire 1 f PC_4_IF_EX [28] $end
$var wire 1 g PC_4_IF_EX [27] $end
$var wire 1 h PC_4_IF_EX [26] $end
$var wire 1 i PC_4_IF_EX [25] $end
$var wire 1 j PC_4_IF_EX [24] $end
$var wire 1 k PC_4_IF_EX [23] $end
$var wire 1 l PC_4_IF_EX [22] $end
$var wire 1 m PC_4_IF_EX [21] $end
$var wire 1 n PC_4_IF_EX [20] $end
$var wire 1 o PC_4_IF_EX [19] $end
$var wire 1 p PC_4_IF_EX [18] $end
$var wire 1 q PC_4_IF_EX [17] $end
$var wire 1 r PC_4_IF_EX [16] $end
$var wire 1 s PC_4_IF_EX [15] $end
$var wire 1 t PC_4_IF_EX [14] $end
$var wire 1 u PC_4_IF_EX [13] $end
$var wire 1 v PC_4_IF_EX [12] $end
$var wire 1 w PC_4_IF_EX [11] $end
$var wire 1 x PC_4_IF_EX [10] $end
$var wire 1 y PC_4_IF_EX [9] $end
$var wire 1 z PC_4_IF_EX [8] $end
$var wire 1 { PC_4_IF_EX [7] $end
$var wire 1 | PC_4_IF_EX [6] $end
$var wire 1 } PC_4_IF_EX [5] $end
$var wire 1 ~ PC_4_IF_EX [4] $end
$var wire 1 !! PC_4_IF_EX [3] $end
$var wire 1 "! PC_4_IF_EX [2] $end
$var wire 1 #! PC_4_IF_EX [1] $end
$var wire 1 $! PC_4_IF_EX [0] $end
$var wire 1 %! INSTRUCTION_IF_ID [31] $end
$var wire 1 &! INSTRUCTION_IF_ID [30] $end
$var wire 1 '! INSTRUCTION_IF_ID [29] $end
$var wire 1 (! INSTRUCTION_IF_ID [28] $end
$var wire 1 )! INSTRUCTION_IF_ID [27] $end
$var wire 1 *! INSTRUCTION_IF_ID [26] $end
$var wire 1 +! INSTRUCTION_IF_ID [25] $end
$var wire 1 ,! INSTRUCTION_IF_ID [24] $end
$var wire 1 -! INSTRUCTION_IF_ID [23] $end
$var wire 1 .! INSTRUCTION_IF_ID [22] $end
$var wire 1 /! INSTRUCTION_IF_ID [21] $end
$var wire 1 0! INSTRUCTION_IF_ID [20] $end
$var wire 1 1! INSTRUCTION_IF_ID [19] $end
$var wire 1 2! INSTRUCTION_IF_ID [18] $end
$var wire 1 3! INSTRUCTION_IF_ID [17] $end
$var wire 1 4! INSTRUCTION_IF_ID [16] $end
$var wire 1 5! INSTRUCTION_IF_ID [15] $end
$var wire 1 6! INSTRUCTION_IF_ID [14] $end
$var wire 1 7! INSTRUCTION_IF_ID [13] $end
$var wire 1 8! INSTRUCTION_IF_ID [12] $end
$var wire 1 9! INSTRUCTION_IF_ID [11] $end
$var wire 1 :! INSTRUCTION_IF_ID [10] $end
$var wire 1 ;! INSTRUCTION_IF_ID [9] $end
$var wire 1 <! INSTRUCTION_IF_ID [8] $end
$var wire 1 =! INSTRUCTION_IF_ID [7] $end
$var wire 1 >! INSTRUCTION_IF_ID [6] $end
$var wire 1 ?! INSTRUCTION_IF_ID [5] $end
$var wire 1 @! INSTRUCTION_IF_ID [4] $end
$var wire 1 A! INSTRUCTION_IF_ID [3] $end
$var wire 1 B! INSTRUCTION_IF_ID [2] $end
$var wire 1 C! INSTRUCTION_IF_ID [1] $end
$var wire 1 D! INSTRUCTION_IF_ID [0] $end
$var wire 1 E! FUNCT3_ID_EX [2] $end
$var wire 1 F! FUNCT3_ID_EX [1] $end
$var wire 1 G! FUNCT3_ID_EX [0] $end
$var wire 1 H! LoadStore_Sel [2] $end
$var wire 1 I! LoadStore_Sel [1] $end
$var wire 1 J! LoadStore_Sel [0] $end
$var wire 1 K! FUNCT7_ID_EX [6] $end
$var wire 1 L! FUNCT7_ID_EX [5] $end
$var wire 1 M! FUNCT7_ID_EX [4] $end
$var wire 1 N! FUNCT7_ID_EX [3] $end
$var wire 1 O! FUNCT7_ID_EX [2] $end
$var wire 1 P! FUNCT7_ID_EX [1] $end
$var wire 1 Q! FUNCT7_ID_EX [0] $end
$var wire 1 R! OPCODE_ID_Ctrl [6] $end
$var wire 1 S! OPCODE_ID_Ctrl [5] $end
$var wire 1 T! OPCODE_ID_Ctrl [4] $end
$var wire 1 U! OPCODE_ID_Ctrl [3] $end
$var wire 1 V! OPCODE_ID_Ctrl [2] $end
$var wire 1 W! OPCODE_ID_Ctrl [1] $end
$var wire 1 X! OPCODE_ID_Ctrl [0] $end
$var wire 1 Y! MemRead_Ctrl_Mem $end
$var wire 1 Z! MemWrite_Ctrl_Mem $end
$var wire 1 [! RegWrite_Ctrl_ID $end
$var wire 1 \! IMM_ID_EX [31] $end
$var wire 1 ]! IMM_ID_EX [30] $end
$var wire 1 ^! IMM_ID_EX [29] $end
$var wire 1 _! IMM_ID_EX [28] $end
$var wire 1 `! IMM_ID_EX [27] $end
$var wire 1 a! IMM_ID_EX [26] $end
$var wire 1 b! IMM_ID_EX [25] $end
$var wire 1 c! IMM_ID_EX [24] $end
$var wire 1 d! IMM_ID_EX [23] $end
$var wire 1 e! IMM_ID_EX [22] $end
$var wire 1 f! IMM_ID_EX [21] $end
$var wire 1 g! IMM_ID_EX [20] $end
$var wire 1 h! IMM_ID_EX [19] $end
$var wire 1 i! IMM_ID_EX [18] $end
$var wire 1 j! IMM_ID_EX [17] $end
$var wire 1 k! IMM_ID_EX [16] $end
$var wire 1 l! IMM_ID_EX [15] $end
$var wire 1 m! IMM_ID_EX [14] $end
$var wire 1 n! IMM_ID_EX [13] $end
$var wire 1 o! IMM_ID_EX [12] $end
$var wire 1 p! IMM_ID_EX [11] $end
$var wire 1 q! IMM_ID_EX [10] $end
$var wire 1 r! IMM_ID_EX [9] $end
$var wire 1 s! IMM_ID_EX [8] $end
$var wire 1 t! IMM_ID_EX [7] $end
$var wire 1 u! IMM_ID_EX [6] $end
$var wire 1 v! IMM_ID_EX [5] $end
$var wire 1 w! IMM_ID_EX [4] $end
$var wire 1 x! IMM_ID_EX [3] $end
$var wire 1 y! IMM_ID_EX [2] $end
$var wire 1 z! IMM_ID_EX [1] $end
$var wire 1 {! IMM_ID_EX [0] $end
$var wire 1 |! ALU_DATA_WB_ID [31] $end
$var wire 1 }! ALU_DATA_WB_ID [30] $end
$var wire 1 ~! ALU_DATA_WB_ID [29] $end
$var wire 1 !" ALU_DATA_WB_ID [28] $end
$var wire 1 "" ALU_DATA_WB_ID [27] $end
$var wire 1 #" ALU_DATA_WB_ID [26] $end
$var wire 1 $" ALU_DATA_WB_ID [25] $end
$var wire 1 %" ALU_DATA_WB_ID [24] $end
$var wire 1 &" ALU_DATA_WB_ID [23] $end
$var wire 1 '" ALU_DATA_WB_ID [22] $end
$var wire 1 (" ALU_DATA_WB_ID [21] $end
$var wire 1 )" ALU_DATA_WB_ID [20] $end
$var wire 1 *" ALU_DATA_WB_ID [19] $end
$var wire 1 +" ALU_DATA_WB_ID [18] $end
$var wire 1 ," ALU_DATA_WB_ID [17] $end
$var wire 1 -" ALU_DATA_WB_ID [16] $end
$var wire 1 ." ALU_DATA_WB_ID [15] $end
$var wire 1 /" ALU_DATA_WB_ID [14] $end
$var wire 1 0" ALU_DATA_WB_ID [13] $end
$var wire 1 1" ALU_DATA_WB_ID [12] $end
$var wire 1 2" ALU_DATA_WB_ID [11] $end
$var wire 1 3" ALU_DATA_WB_ID [10] $end
$var wire 1 4" ALU_DATA_WB_ID [9] $end
$var wire 1 5" ALU_DATA_WB_ID [8] $end
$var wire 1 6" ALU_DATA_WB_ID [7] $end
$var wire 1 7" ALU_DATA_WB_ID [6] $end
$var wire 1 8" ALU_DATA_WB_ID [5] $end
$var wire 1 9" ALU_DATA_WB_ID [4] $end
$var wire 1 :" ALU_DATA_WB_ID [3] $end
$var wire 1 ;" ALU_DATA_WB_ID [2] $end
$var wire 1 <" ALU_DATA_WB_ID [1] $end
$var wire 1 =" ALU_DATA_WB_ID [0] $end
$var wire 1 >" REG_DATA1_ID_EX [31] $end
$var wire 1 ?" REG_DATA1_ID_EX [30] $end
$var wire 1 @" REG_DATA1_ID_EX [29] $end
$var wire 1 A" REG_DATA1_ID_EX [28] $end
$var wire 1 B" REG_DATA1_ID_EX [27] $end
$var wire 1 C" REG_DATA1_ID_EX [26] $end
$var wire 1 D" REG_DATA1_ID_EX [25] $end
$var wire 1 E" REG_DATA1_ID_EX [24] $end
$var wire 1 F" REG_DATA1_ID_EX [23] $end
$var wire 1 G" REG_DATA1_ID_EX [22] $end
$var wire 1 H" REG_DATA1_ID_EX [21] $end
$var wire 1 I" REG_DATA1_ID_EX [20] $end
$var wire 1 J" REG_DATA1_ID_EX [19] $end
$var wire 1 K" REG_DATA1_ID_EX [18] $end
$var wire 1 L" REG_DATA1_ID_EX [17] $end
$var wire 1 M" REG_DATA1_ID_EX [16] $end
$var wire 1 N" REG_DATA1_ID_EX [15] $end
$var wire 1 O" REG_DATA1_ID_EX [14] $end
$var wire 1 P" REG_DATA1_ID_EX [13] $end
$var wire 1 Q" REG_DATA1_ID_EX [12] $end
$var wire 1 R" REG_DATA1_ID_EX [11] $end
$var wire 1 S" REG_DATA1_ID_EX [10] $end
$var wire 1 T" REG_DATA1_ID_EX [9] $end
$var wire 1 U" REG_DATA1_ID_EX [8] $end
$var wire 1 V" REG_DATA1_ID_EX [7] $end
$var wire 1 W" REG_DATA1_ID_EX [6] $end
$var wire 1 X" REG_DATA1_ID_EX [5] $end
$var wire 1 Y" REG_DATA1_ID_EX [4] $end
$var wire 1 Z" REG_DATA1_ID_EX [3] $end
$var wire 1 [" REG_DATA1_ID_EX [2] $end
$var wire 1 \" REG_DATA1_ID_EX [1] $end
$var wire 1 ]" REG_DATA1_ID_EX [0] $end
$var wire 1 ^" REG_DATA2_ID_EX [31] $end
$var wire 1 _" REG_DATA2_ID_EX [30] $end
$var wire 1 `" REG_DATA2_ID_EX [29] $end
$var wire 1 a" REG_DATA2_ID_EX [28] $end
$var wire 1 b" REG_DATA2_ID_EX [27] $end
$var wire 1 c" REG_DATA2_ID_EX [26] $end
$var wire 1 d" REG_DATA2_ID_EX [25] $end
$var wire 1 e" REG_DATA2_ID_EX [24] $end
$var wire 1 f" REG_DATA2_ID_EX [23] $end
$var wire 1 g" REG_DATA2_ID_EX [22] $end
$var wire 1 h" REG_DATA2_ID_EX [21] $end
$var wire 1 i" REG_DATA2_ID_EX [20] $end
$var wire 1 j" REG_DATA2_ID_EX [19] $end
$var wire 1 k" REG_DATA2_ID_EX [18] $end
$var wire 1 l" REG_DATA2_ID_EX [17] $end
$var wire 1 m" REG_DATA2_ID_EX [16] $end
$var wire 1 n" REG_DATA2_ID_EX [15] $end
$var wire 1 o" REG_DATA2_ID_EX [14] $end
$var wire 1 p" REG_DATA2_ID_EX [13] $end
$var wire 1 q" REG_DATA2_ID_EX [12] $end
$var wire 1 r" REG_DATA2_ID_EX [11] $end
$var wire 1 s" REG_DATA2_ID_EX [10] $end
$var wire 1 t" REG_DATA2_ID_EX [9] $end
$var wire 1 u" REG_DATA2_ID_EX [8] $end
$var wire 1 v" REG_DATA2_ID_EX [7] $end
$var wire 1 w" REG_DATA2_ID_EX [6] $end
$var wire 1 x" REG_DATA2_ID_EX [5] $end
$var wire 1 y" REG_DATA2_ID_EX [4] $end
$var wire 1 z" REG_DATA2_ID_EX [3] $end
$var wire 1 {" REG_DATA2_ID_EX [2] $end
$var wire 1 |" REG_DATA2_ID_EX [1] $end
$var wire 1 }" REG_DATA2_ID_EX [0] $end
$var wire 1 ~" ALU_OUT_EX_Mem [31] $end
$var wire 1 !# ALU_OUT_EX_Mem [30] $end
$var wire 1 "# ALU_OUT_EX_Mem [29] $end
$var wire 1 ## ALU_OUT_EX_Mem [28] $end
$var wire 1 $# ALU_OUT_EX_Mem [27] $end
$var wire 1 %# ALU_OUT_EX_Mem [26] $end
$var wire 1 &# ALU_OUT_EX_Mem [25] $end
$var wire 1 '# ALU_OUT_EX_Mem [24] $end
$var wire 1 (# ALU_OUT_EX_Mem [23] $end
$var wire 1 )# ALU_OUT_EX_Mem [22] $end
$var wire 1 *# ALU_OUT_EX_Mem [21] $end
$var wire 1 +# ALU_OUT_EX_Mem [20] $end
$var wire 1 ,# ALU_OUT_EX_Mem [19] $end
$var wire 1 -# ALU_OUT_EX_Mem [18] $end
$var wire 1 .# ALU_OUT_EX_Mem [17] $end
$var wire 1 /# ALU_OUT_EX_Mem [16] $end
$var wire 1 0# ALU_OUT_EX_Mem [15] $end
$var wire 1 1# ALU_OUT_EX_Mem [14] $end
$var wire 1 2# ALU_OUT_EX_Mem [13] $end
$var wire 1 3# ALU_OUT_EX_Mem [12] $end
$var wire 1 4# ALU_OUT_EX_Mem [11] $end
$var wire 1 5# ALU_OUT_EX_Mem [10] $end
$var wire 1 6# ALU_OUT_EX_Mem [9] $end
$var wire 1 7# ALU_OUT_EX_Mem [8] $end
$var wire 1 8# ALU_OUT_EX_Mem [7] $end
$var wire 1 9# ALU_OUT_EX_Mem [6] $end
$var wire 1 :# ALU_OUT_EX_Mem [5] $end
$var wire 1 ;# ALU_OUT_EX_Mem [4] $end
$var wire 1 <# ALU_OUT_EX_Mem [3] $end
$var wire 1 =# ALU_OUT_EX_Mem [2] $end
$var wire 1 ># ALU_OUT_EX_Mem [1] $end
$var wire 1 ?# ALU_OUT_EX_Mem [0] $end
$var wire 1 @# Read_data_Mem_Mux [31] $end
$var wire 1 A# Read_data_Mem_Mux [30] $end
$var wire 1 B# Read_data_Mem_Mux [29] $end
$var wire 1 C# Read_data_Mem_Mux [28] $end
$var wire 1 D# Read_data_Mem_Mux [27] $end
$var wire 1 E# Read_data_Mem_Mux [26] $end
$var wire 1 F# Read_data_Mem_Mux [25] $end
$var wire 1 G# Read_data_Mem_Mux [24] $end
$var wire 1 H# Read_data_Mem_Mux [23] $end
$var wire 1 I# Read_data_Mem_Mux [22] $end
$var wire 1 J# Read_data_Mem_Mux [21] $end
$var wire 1 K# Read_data_Mem_Mux [20] $end
$var wire 1 L# Read_data_Mem_Mux [19] $end
$var wire 1 M# Read_data_Mem_Mux [18] $end
$var wire 1 N# Read_data_Mem_Mux [17] $end
$var wire 1 O# Read_data_Mem_Mux [16] $end
$var wire 1 P# Read_data_Mem_Mux [15] $end
$var wire 1 Q# Read_data_Mem_Mux [14] $end
$var wire 1 R# Read_data_Mem_Mux [13] $end
$var wire 1 S# Read_data_Mem_Mux [12] $end
$var wire 1 T# Read_data_Mem_Mux [11] $end
$var wire 1 U# Read_data_Mem_Mux [10] $end
$var wire 1 V# Read_data_Mem_Mux [9] $end
$var wire 1 W# Read_data_Mem_Mux [8] $end
$var wire 1 X# Read_data_Mem_Mux [7] $end
$var wire 1 Y# Read_data_Mem_Mux [6] $end
$var wire 1 Z# Read_data_Mem_Mux [5] $end
$var wire 1 [# Read_data_Mem_Mux [4] $end
$var wire 1 \# Read_data_Mem_Mux [3] $end
$var wire 1 ]# Read_data_Mem_Mux [2] $end
$var wire 1 ^# Read_data_Mem_Mux [1] $end
$var wire 1 _# Read_data_Mem_Mux [0] $end
$var wire 1 `# PC_Sel $end
$var wire 1 a# BSel $end
$var wire 1 b# ASel $end
$var wire 1 c# BrUn $end
$var wire 1 d# BrLT $end
$var wire 1 e# BrEq $end
$var wire 1 f# WB_Sel [1] $end
$var wire 1 g# WB_Sel [0] $end
$var wire 1 h# ImmSel [2] $end
$var wire 1 i# ImmSel [1] $end
$var wire 1 j# ImmSel [0] $end
$var wire 1 k# AluSel [3] $end
$var wire 1 l# AluSel [2] $end
$var wire 1 m# AluSel [1] $end
$var wire 1 n# AluSel [0] $end
$upscope $end
$upscope $end
$upscope $end
$enddefinitions $end
#0
$dumpvars
0!
0"
xB
xA
x@
x?
x>
x=
x<
x;
x:
x9
x8
x7
x6
x5
x4
x3
x2
x1
x0
x/
x.
x-
x,
x+
x*
x)
x(
x'
x&
x%
x$
x#
xb
xa
x`
x_
x^
x]
x\
x[
xZ
xY
xX
xW
xV
xU
xT
xS
xR
xQ
xP
xO
xN
xM
xL
xK
xJ
xI
xH
xG
xF
xE
xD
xC
x$!
x#!
x"!
x!!
x~
x}
x|
x{
xz
xy
xx
xw
xv
xu
xt
xs
xr
xq
xp
xo
xn
xm
xl
xk
xj
xi
xh
xg
xf
xe
xd
xc
xD!
xC!
xB!
xA!
x@!
x?!
x>!
x=!
x<!
x;!
x:!
x9!
x8!
x7!
x6!
x5!
x4!
x3!
x2!
x1!
x0!
x/!
x.!
x-!
x,!
x+!
x*!
x)!
x(!
x'!
x&!
x%!
xG!
xF!
xE!
xJ!
xI!
xH!
xQ!
xP!
xO!
xN!
xM!
xL!
xK!
xX!
xW!
xV!
xU!
xT!
xS!
xR!
xY!
xZ!
x[!
x{!
xz!
xy!
xx!
xw!
xv!
xu!
xt!
xs!
xr!
xq!
xp!
xo!
xn!
xm!
xl!
xk!
xj!
xi!
xh!
xg!
xf!
xe!
xd!
xc!
xb!
xa!
x`!
x_!
x^!
x]!
x\!
x="
x<"
x;"
x:"
x9"
x8"
x7"
x6"
x5"
x4"
x3"
x2"
x1"
x0"
x/"
x."
x-"
x,"
x+"
x*"
x)"
x("
x'"
x&"
x%"
x$"
x#"
x""
x!"
x~!
x}!
x|!
x]"
x\"
x["
xZ"
xY"
xX"
xW"
xV"
xU"
xT"
xS"
xR"
xQ"
xP"
xO"
xN"
xM"
xL"
xK"
xJ"
xI"
xH"
xG"
xF"
xE"
xD"
xC"
xB"
xA"
x@"
x?"
x>"
x}"
x|"
x{"
xz"
xy"
xx"
xw"
xv"
xu"
xt"
xs"
xr"
xq"
xp"
xo"
xn"
xm"
xl"
xk"
xj"
xi"
xh"
xg"
xf"
xe"
xd"
xc"
xb"
xa"
x`"
x_"
x^"
x?#
x>#
x=#
x<#
x;#
x:#
x9#
x8#
x7#
x6#
x5#
x4#
x3#
x2#
x1#
x0#
x/#
x.#
x-#
x,#
x+#
x*#
x)#
x(#
x'#
x&#
x%#
x$#
x##
x"#
x!#
x~"
x_#
x^#
x]#
x\#
x[#
xZ#
xY#
xX#
xW#
xV#
xU#
xT#
xS#
xR#
xQ#
xP#
xO#
xN#
xM#
xL#
xK#
xJ#
xI#
xH#
xG#
xF#
xE#
xD#
xC#
xB#
xA#
x@#
x`#
xa#
xb#
xc#
xd#
xe#
xg#
xf#
xj#
xi#
xh#
xn#
xm#
xl#
xk#
$end
#50000
1!
1"
0b
0a
0`
0_
0^
0]
0\
0[
0Z
0Y
0X
0W
0V
0U
0T
0S
0R
0Q
0P
0O
0N
0M
0L
0K
0J
0I
0H
0G
0F
0E
0D
0C
0B
0A
0@
0?
0>
0=
0<
0;
0:
09
08
07
06
05
04
03
02
01
00
0/
0.
0-
0,
0+
0*
0)
0(
0'
0&
0%
0$
0#
0$!
0#!
1"!
0!!
0~
0}
0|
0{
0z
0y
0x
0w
0v
0u
0t
0s
0r
0q
0p
0o
0n
0m
0l
0k
0j
0i
0h
0g
0f
0e
0d
0c
1D!
1C!
0B!
0A!
1@!
0?!
0>!
1=!
0<!
0;!
1:!
09!
08!
07!
06!
05!
04!
03!
02!
01!
00!
0/!
0.!
0-!
0,!
1+!
1*!
0)!
0(!
0'!
0&!
0%!
0]"
0\"
0["
0Z"
0Y"
0X"
0W"
0V"
0U"
0T"
0S"
0R"
0Q"
0P"
0O"
0N"
0M"
0L"
0K"
0J"
0I"
0H"
0G"
0F"
0E"
0D"
0C"
0B"
0A"
0@"
0?"
0>"
0}"
0|"
0{"
0z"
0y"
0x"
0w"
0v"
0u"
0t"
0s"
0r"
0q"
0p"
0o"
0n"
0m"
0l"
0k"
0j"
0i"
0h"
0g"
0f"
0e"
0d"
0c"
0b"
0a"
0`"
0_"
0^"
1Q!
1P!
0O!
0N!
0M!
0L!
0K!
0G!
0F!
0E!
1X!
1W!
0V!
0U!
1T!
0S!
0R!
0`#
1[!
1a#
0b#
0Z!
0Y!
0{!
0z!
0y!
0x!
0w!
0v!
0u!
0t!
0s!
0r!
0q!
0p!
0o!
0n!
0m!
0l!
0k!
0j!
0i!
0h!
0g!
0f!
0e!
0d!
0c!
0b!
0a!
0`!
0_!
0^!
0]!
0\!
0c#
1e#
0d#
0n#
1m#
0l#
0k#
1g#
0f#
0j#
0i#
0h#
1v!
1u!
0?#
0>#
0=#
0<#
0;#
0:#
09#
08#
07#
06#
05#
04#
03#
02#
01#
00#
0/#
0.#
0-#
0,#
0+#
0*#
0)#
0(#
0'#
0&#
0%#
0$#
0##
0"#
0!#
0~"
0="
0<"
0;"
0:"
09"
08"
07"
06"
05"
04"
03"
02"
01"
00"
0/"
0."
0-"
0,"
0+"
0*"
0)"
0("
0'"
0&"
0%"
0$"
0#"
0""
0!"
0~!
0}!
0|!
1:#
19#
18"
17"
#100000
0!
#150000
1!
#200000
0!
#250000
1!
#300000
0!
#350000
1!
#400000
0!
#450000
1!
#500000
0!
#550000
1!
0"
#600000
0!
#650000
1!
1`
1@
0"!
1!!
0=!
1<!
0*!
0P!
0u!
09#
07"
#700000
0!
#750000
1!
0`
1_
0@
1?
1"!
0:!
19!
1.!
0+!
1*!
0Q!
1P!
1y!
0v!
1u!
1=#
0:#
19#
1;"
08"
17"
#800000
0!
#850000
1!
1`
1@
0"!
0!!
1~
1=!
0<!
1:!
0*!
0P!
0u!
09#
07"
#900000
0!
#950000
1!
0`
0_
1^
0@
0?
1>
1"!
1<!
0:!
1+!
1Q!
1v!
1:#
18"
#1000000
0!
#1050000
1!
1`
1@
0"!
1!!
0=!
1;!
1:!
1,!
0+!
0Q!
1w!
0v!
1;#
0:#
19"
08"
#1100000
0!
#1150000
1!
0`
1_
0@
1?
1"!
0<!
0;!
09!
1-!
1*!
1P!
1x!
1u!
1<#
19#
1:"
17"
#1200000
0!
#1250000
1!
1`
1@
0"!
0!!
0~
1}
1<!
1;!
0:!
19!
0.!
0-!
0y!
0x!
0=#
0<#
0;"
0:"
#1300000
0!
#1350000
1!
0`
0_
0^
1]
0@
0?
0>
1=
1"!
0<!
0;!
1:!
1-!
1x!
1<#
1:"
#1400000
0!
#1450000
1!
1z"
1y"
1w"
1`
1@
0"!
1!!
0e#
1d#
1=!
1;!
0:!
0-!
0,!
0*!
0z"
0y"
0w"
0P!
0x!
0w!
0u!
0d#
1e#
0<#
0;#
09#
0:"
09"
07"
#1500000
0!
#1550000
1!
0`
1_
0@
1?
1"!
0=!
1:!
09!
1,!
1*!
1P!
1w!
1u!
1;#
19#
19"
17"
#1600000
0!
#1650000
1!
1`
1@
0"!
0!!
1~
1<!
0;!
0:!
1-!
0,!
1+!
0*!
1{"
1z"
1y"
1w"
1Q!
0P!
1x!
0w!
1v!
0u!
0e#
1d#
1<#
0;#
1:#
09#
1:"
09"
18"
07"
#1700000
0!
#1750000
1!
0`
0_
1^
0@
0?
1>
1"!
1=!
0<!
1;!
1:!
1.!
0+!
0{"
0z"
0Q!
1y!
0v!
1=#
0:#
1;"
08"
#1800000
0!
#1850000
1!
1`
1@
0"!
1!!
0;!
0:!
0-!
0y"
0w"
0x!
0d#
1e#
0<#
0:"
#1900000
0!
#1950000
1!
0`
1_
0@
1?
1"!
1<!
1-!
1y"
1w"
1x!
0e#
1d#
1<#
1:"
#2000000
0!
#2050000
1!
1`
1@
0"!
0!!
0~
0}
1|
0=!
1;!
1*!
1P!
1u!
19#
17"
#2100000
0!
#2150000
1!
0`
0_
0^
0]
1\
0@
0?
0>
0=
1<
1"!
1=!
0;!
1:!
0.!
0-!
0*!
0y"
0w"
0P!
0y!
0x!
0u!
0d#
1e#
0=#
0<#
09#
0;"
0:"
07"
#2200000
0!
#2250000
1!
1`
1@
0"!
1!!
0<!
1;!
0:!
1-!
1*!
1{"
1z"
1y"
1w"
1P!
1x!
1u!
0e#
1d#
1<#
19#
1:"
17"
#2300000
0!
#2350000
1!
0`
1_
0@
1?
1"!
0=!
1<!
1:!
10!
1/!
1.!
1,!
1+!
1)!
1(!
1'!
1&!
0{"
0z"
0y"
0w"
1Q!
1O!
1N!
1M!
1L!
1{!
1z!
1y!
1w!
1v!
1t!
1s!
1r!
1q!
0d#
1e#
1?#
1>#
1=#
1;#
1:#
18#
17#
16#
15#
1="
1<"
1;"
19"
18"
16"
15"
14"
13"
#2400000
0!
#2450000
1!
1`
1@
0"!
0!!
1~
0<!
0:!
00!
0/!
0+!
0*!
0'!
0Q!
0P!
0M!
0{!
0z!
0v!
0u!
0r!
0?#
0>#
0:#
09#
06#
0="
0<"
08"
07"
04"
#2500000
0!
#2550000
1!
0`
0_
1^
0@
0?
1>
1"!
1=!
1<!
0.!
0-!
0,!
1+!
1*!
0)!
0(!
0&!
1Q!
1P!
0O!
0N!
0L!
0y!
0x!
0w!
1v!
1u!
0t!
0s!
0q!
0=#
0<#
0;#
1:#
19#
08#
07#
05#
0;"
0:"
09"
18"
17"
06"
05"
03"
#2600000
0!
#2650000
1!
1`
1@
0"!
1!!
0=!
1:!
10!
1/!
1.!
1-!
1,!
0+!
1(!
0Q!
1N!
1{!
1z!
1y!
1x!
1w!
0v!
1s!
1?#
1>#
1=#
1<#
1;#
0:#
17#
1="
1<"
1;"
1:"
19"
08"
15"
#2700000
0!
#2750000
1!
0`
1_
0@
1?
1"!
1=!
00!
0.!
0-!
1+!
0(!
1%!
1{"
1w"
1Q!
0N!
1K!
0{!
0y!
0x!
1v!
0s!
1p!
1o!
1n!
1m!
1l!
1k!
1j!
1i!
1h!
1g!
1f!
1e!
1d!
1c!
1b!
1a!
1`!
1_!
1^!
1]!
1\!
0e#
1d#
0?#
0=#
0<#
1:#
07#
14#
13#
12#
11#
10#
1/#
1.#
1-#
1,#
1+#
1*#
1)#
1(#
1'#
1&#
1%#
1$#
1##
1"#
1!#
1~"
0="
0;"
0:"
18"
05"
12"
11"
10"
1/"
1."
1-"
1,"
1+"
1*"
1)"
1("
1'"
1&"
1%"
1$"
1#"
1""
1!"
1~!
1}!
1|!
#2800000
0!
#2850000
1!
1`
1@
0"!
0!!
0~
1}
0=!
0<!
0;!
0:!
19!
0/!
1-!
0*!
1(!
1'!
0{"
1z"
1y"
0P!
1N!
1M!
0z!
1x!
0u!
1s!
1r!
0>#
1<#
09#
17#
16#
0<"
1:"
07"
15"
14"
#2900000
0!
#2950000
1!
0`
0_
0^
1]
0@
0?
0>
1=
1"!
1=!
1.!
0-!
0+!
1*!
0(!
0'!
0z"
0y"
0w"
0Q!
1P!
0N!
0M!
1y!
0x!
0v!
1u!
0s!
0r!
0d#
1e#
1=#
0<#
0:#
19#
07#
06#
1;"
0:"
08"
17"
05"
04"
#3000000
0!
#3050000
1!
1`
1@
0"!
1!!
0=!
1;!
10!
1/!
0,!
1+!
1x"
1w"
1Q!
1{!
1z!
0w!
1v!
0e#
1d#
1?#
1>#
0;#
1:#
1="
1<"
09"
18"
#3100000
0!
